…
```R
> papers <- open_dataset("p05_five_percent_random_subset/papers.parquet")
> mentions <- open_dataset("p05_five_percent_random_subset/mentions.pdf.parquet")
> 
> mentions |>
+   filter(software_normalized == "STATA") |>
+   select(paper_id) |>
+   distinct() |>
+   inner_join(papers, by = c("paper_id")) |>
+   filter(published_year >= 2000, published_year <= 2020) |>
+   count(published_year) |>
+   arrange(published_year) |>
+   collect()
# A tibble: 21 × 2
   published_year     n
            <int> <int>
 1           2000    11
 2           2001    14
 3           2002    20
 4           2003    29
 5           2004    51
 6           2005    32
 7           2006    42
 8           2007    49
 9           2008    77
10           2009    87
# ℹ 11 more rows
# ℹ Use `print(n = ...)` to see more rows
```
…
> purposes <- open_dataset("p05_five_percent_random_subset/purpose_assessments.pdf.parquet")
> 
> papers |>
+   filter(published_year >= 2020) |>
+   select(paper_id) |>
+   inner_join(mentions, by=c("paper_id")) |>
+   select(software_mention_id, software_normalized) |>
+   inner_join(purposes, by=c("software_mention_id")) |>
+   filter(scope=="document", purpose=="used", certainty_score > 0.5) |>
+   select(paper_id, software_normalized) |>
+   distinct() |>
+   count(software_normalized) |>
+   arrange(desc(n)) |>
+   collect()
# A tibble: 79,730 × 2
   software_normalized     n
   <chr>               <int>
 1 SPSS                22596
 2 GraphPad Prism       8080
 3 Excel                6131
 4 ImageJ               5477
 5 MATLAB               5117
 6 SAS                  3480
 7 SPSS Statistics      3065
 8 Stata                2545
 9 script               2247
10 Matlab               2225
# ℹ 79,720 more rows
# ℹ Use `print(n = ...)` to see more rows
```
…
